{
  "name": "inventory-connector",
  "config": {
    "connector.class": "io.debezium.connector.postgresql.PostgresConnector",
    "database.hostname": "quarkus_test",
    "plugin.name": "pgoutput",
    "database.port": "5432",
    "database.user": "quarkus",
    "database.password": "quarkus",
    "database.dbname" : "quarkusdb",
    "database.server.name": "fullfillment",
    "table.whitelist": "public.customer"
  }
}